{
  "uid" : "b1a8273437954620fa374b796ffaacdd",
  "name" : "behaviors",
  "children" : [ {
    "name" : "googleTest",
    "uid" : "db947ea02b55b6a0",
    "parentUid" : "b1a8273437954620fa374b796ffaacdd",
    "status" : "passed",
    "time" : {
      "start" : 1618326002550,
      "stop" : 1618326009131,
      "duration" : 6581
    },
    "flaky" : false,
    "parameters" : [ "4" ]
  } ]
}